
************************************************ 
ESAME DI "TERMODINAMICA DELL INGEGNERIA CHIMICA" 
21 Maggio 2008                               ms
************************************************

			<<<< X = 0 >>>>			INIZIO

***************************************
Tutto ideale
***************************************

L=6.907860e+001	[mol/h]
V=2.309214e+002	[mol/h]

xL
 THF: 1.858502e-001
 H2O: 8.141380e-001
 O2: 4.270458e-006
 N2: 7.537879e-006

yV
 THF: 7.431848e-002
 H2O: 5.958949e-002
 O2: 1.818788e-001
 N2: 6.842132e-001


***************************************
Mix non ideale di componenti ideali
***************************************

L=6.496850e+001	[mol/h]
V=2.350315e+002	[mol/h]

xL
 THF: 1.501252e-001
 H2O: 8.498632e-001
 O2: 4.195781e-006
 N2: 7.406062e-006

yV
 THF: 8.614415e-002
 H2O: 6.290927e-002
 O2: 1.786983e-001
 N2: 6.722483e-001


***************************************
Mix non ideale di componenti non ideali
***************************************

L=6.500498e+001	[mol/h]
V=2.349950e+002	[mol/h]

xL
 THF: 1.429963e-001
 H2O: 8.569921e-001
 O2: 4.196432e-006
 N2: 7.407212e-006

yV
 THF: 8.810623e-002
 H2O: 6.081509e-002
 O2: 1.787260e-001
 N2: 6.723526e-001


***************************************
Potenza Q=1.939469e+000 [kW]
***************************************
			<<<< X = 0 >>>>			FINE


			<<<< X = 1 >>>>			INIZIO

***************************************
Tutto ideale
***************************************

L=6.627918e+001	[mol/h]
V=2.337208e+002	[mol/h]

xL
 THF: 1.793378e-001
 H2O: 8.206506e-001
 O2: 4.219309e-006
 N2: 7.447594e-006

yV
 THF: 7.750119e-002
 H2O: 6.678034e-002
 O2: 1.797004e-001
 N2: 6.760181e-001


***************************************
Mix non ideale di componenti ideali
***************************************

L=6.207113e+001	[mol/h]
V=2.379289e+002	[mol/h]

xL
 THF: 1.424611e-001
 H2O: 8.575275e-001
 O2: 4.144688e-006
 N2: 7.315876e-006

yV
 THF: 8.892272e-002
 H2O: 7.049291e-002
 O2: 1.765223e-001
 N2: 6.640621e-001


***************************************
Mix non ideale di componenti non ideali
***************************************

L=6.240477e+001	[mol/h]
V=2.375952e+002	[mol/h]

xL
 THF: 1.355141e-001
 H2O: 8.644744e-001
 O2: 4.150508e-006
 N2: 7.326150e-006

yV
 THF: 9.067217e-002
 H2O: 6.756310e-002
 O2: 1.767701e-001
 N2: 6.649946e-001


***************************************
Potenza Q=2.160445e+000 [kW]
***************************************
			<<<< X = 1 >>>>			FINE


			<<<< X = 2 >>>>			INIZIO

***************************************
Tutto ideale
***************************************

L=6.322880e+001	[mol/h]
V=2.367712e+002	[mol/h]

xL
 THF: 1.727317e-001
 H2O: 8.272567e-001
 O2: 4.164952e-006
 N2: 7.351646e-006

yV
 THF: 8.057728e-002
 H2O: 7.472847e-002
 O2: 1.773853e-001
 N2: 6.673089e-001


***************************************
Mix non ideale di componenti ideali
***************************************

L=5.893966e+001	[mol/h]
V=2.410603e+002	[mol/h]

xL
 THF: 1.348758e-001
 H2O: 8.651129e-001
 O2: 4.090848e-006
 N2: 7.220842e-006

yV
 THF: 9.147280e-002
 H2O: 7.886217e-002
 O2: 1.742292e-001
 N2: 6.554358e-001


***************************************
Mix non ideale di componenti non ideali
***************************************

L=5.964112e+001	[mol/h]
V=2.403589e+002	[mol/h]

xL
 THF: 1.281635e-001
 H2O: 8.718251e-001
 O2: 4.102787e-006
 N2: 7.241915e-006

yV
 THF: 9.301168e-002
 H2O: 7.490204e-002
 O2: 1.747377e-001
 N2: 6.573486e-001


***************************************
Potenza Q=2.407364e+000 [kW]
***************************************
			<<<< X = 2 >>>>			FINE


			<<<< X = 3 >>>>			INIZIO

***************************************
Tutto ideale
***************************************

L=5.989854e+001	[mol/h]
V=2.401015e+002	[mol/h]

xL
 THF: 1.660520e-001
 H2O: 8.339367e-001
 O2: 4.107185e-006
 N2: 7.249679e-006

yV
 THF: 8.352190e-002
 H2O: 8.349975e-002
 O2: 1.749250e-001
 N2: 6.580533e-001


***************************************
Mix non ideale di componenti ideali
***************************************

L=5.554547e+001	[mol/h]
V=2.444545e+002	[mol/h]

xL
 THF: 1.274046e-001
 H2O: 8.725842e-001
 O2: 4.034050e-006
 N2: 7.120583e-006

yV
 THF: 9.377307e-002
 H2O: 8.808139e-002
 O2: 1.718102e-001
 N2: 6.463354e-001


***************************************
Mix non ideale di componenti non ideali
***************************************

L=5.669925e+001	[mol/h]
V=2.433008e+002	[mol/h]

xL
 THF: 1.209753e-001
 H2O: 8.790135e-001
 O2: 4.053179e-006
 N2: 7.154350e-006

yV
 THF: 9.511188e-002
 H2O: 8.286286e-002
 O2: 1.726249e-001
 N2: 6.494003e-001


***************************************
Potenza Q=2.683124e+000 [kW]
***************************************
			<<<< X = 3 >>>>			FINE


			<<<< X = 4 >>>>			INIZIO

***************************************
Tutto ideale
***************************************

L=5.625468e+001	[mol/h]
V=2.437453e+002	[mol/h]

xL
 THF: 1.593181e-001
 H2O: 8.406707e-001
 O2: 4.045787e-006
 N2: 7.141301e-006

yV
 THF: 8.630980e-002
 H2O: 9.316421e-002
 O2: 1.723101e-001
 N2: 6.482159e-001


***************************************
Mix non ideale di componenti ideali
***************************************

L=5.185479e+001	[mol/h]
V=2.481452e+002	[mol/h]

xL
 THF: 1.200784e-001
 H2O: 8.799106e-001
 O2: 3.974053e-006
 N2: 7.014680e-006

yV
 THF: 9.580422e-002
 H2O: 9.821837e-002
 O2: 1.692549e-001
 N2: 6.367225e-001


***************************************
Mix non ideale di componenti non ideali
***************************************

L=5.356224e+001	[mol/h]
V=2.464378e+002	[mol/h]

xL
 THF: 1.139752e-001
 H2O: 8.860137e-001
 O2: 4.001586e-006
 N2: 7.063281e-006

yV
 THF: 9.696255e-002
 H2O: 9.147592e-002
 O2: 1.704276e-001
 N2: 6.411340e-001


***************************************
Potenza Q=2.990867e+000 [kW]
***************************************
			<<<< X = 4 >>>>			FINE


			<<<< X = 5 >>>>			INIZIO

***************************************
Tutto ideale
***************************************

L=5.225778e+001	[mol/h]
V=2.477422e+002	[mol/h]

xL
 THF: 1.525494e-001
 H2O: 8.474396e-001
 O2: 3.980517e-006
 N2: 7.026090e-006

yV
 THF: 8.891544e-002
 H2O: 1.037962e-001
 O2: 1.695302e-001
 N2: 6.377582e-001


***************************************
Mix non ideale di componenti ideali
***************************************

L=4.782775e+001	[mol/h]
V=2.521723e+002	[mol/h]

xL
 THF: 1.129238e-001
 H2O: 8.870654e-001
 O2: 3.910591e-006
 N2: 6.902661e-006

yV
 THF: 9.754883e-002
 H2O: 1.093445e-001
 O2: 1.665521e-001
 N2: 6.265545e-001


***************************************
Mix non ideale di componenti non ideali
***************************************

L=5.021090e+001	[mol/h]
V=2.497891e+002	[mol/h]

xL
 THF: 1.071840e-001
 H2O: 8.928051e-001
 O2: 3.947900e-006
 N2: 6.968516e-006

yV
 THF: 9.855592e-002
 H2O: 1.007708e-001
 O2: 1.681411e-001
 N2: 6.325322e-001


***************************************
Potenza Q=3.333989e+000 [kW]
***************************************
			<<<< X = 5 >>>>			FINE


			<<<< X = 6 >>>>			INIZIO

***************************************
Tutto ideale
***************************************

L=4.786149e+001	[mol/h]
V=2.521385e+002	[mol/h]

xL
 THF: 1.457642e-001
 H2O: 8.542250e-001
 O2: 3.911114e-006
 N2: 6.903585e-006

yV
 THF: 9.131294e-002
 H2O: 1.154743e-001
 O2: 1.665744e-001
 N2: 6.266384e-001


***************************************
Mix non ideale di componenti ideali
***************************************

L=4.341724e+001	[mol/h]
V=2.565828e+002	[mol/h]

xL
 THF: 1.059625e-001
 H2O: 8.940269e-001
 O2: 3.843372e-006
 N2: 6.784010e-006

yV
 THF: 9.899107e-002
 H2O: 1.215351e-001
 O2: 1.636892e-001
 N2: 6.157846e-001


***************************************
Mix non ideale di componenti non ideali
***************************************

L=4.662354e+001	[mol/h]
V=2.533765e+002	[mol/h]

xL
 THF: 1.006174e-001
 H2O: 8.993718e-001
 O2: 3.892006e-006
 N2: 6.869856e-006

yV
 THF: 9.988639e-002
 H2O: 1.107763e-001
 O2: 1.657605e-001
 N2: 6.235768e-001


***************************************
Potenza Q=3.716178e+000 [kW]
***************************************
			<<<< X = 6 >>>>			FINE


			<<<< X = 7 >>>>			INIZIO

***************************************
Tutto ideale
***************************************

L=4.301107e+001	[mol/h]
V=2.569889e+002	[mol/h]

xL
 THF: 1.389797e-001
 H2O: 8.610097e-001
 O2: 3.837298e-006
 N2: 6.773288e-006

yV
 THF: 9.347614e-002
 H2O: 1.282820e-001
 O2: 1.634305e-001
 N2: 6.148113e-001


***************************************
Mix non ideale di componenti ideali
***************************************

L=3.856756e+001	[mol/h]
V=2.614324e+002	[mol/h]

xL
 THF: 9.921151e-002
 H2O: 9.007781e-001
 O2: 3.772078e-006
 N2: 6.658165e-006

yV
 THF: 1.001163e-001
 H2O: 1.348692e-001
 O2: 1.606528e-001
 N2: 6.043617e-001


***************************************
Mix non ideale di componenti non ideali
***************************************

L=4.277570e+001	[mol/h]
V=2.572243e+002	[mol/h]

xL
 THF: 9.428642e-002
 H2O: 9.057030e-001
 O2: 3.833787e-006
 N2: 6.767090e-006

yV
 THF: 1.009502e-001
 H2O: 1.215201e-001
 O2: 1.632810e-001
 N2: 6.142488e-001


***************************************
Potenza Q=4.141443e+000 [kW]
***************************************
			<<<< X = 7 >>>>			FINE


			<<<< X = 8 >>>>			INIZIO

***************************************
Tutto ideale
***************************************

L=3.764153e+001	[mol/h]
V=2.623585e+002	[mol/h]

xL
 THF: 1.322119e-001
 H2O: 8.677777e-001
 O2: 3.758764e-006
 N2: 6.634665e-006

yV
 THF: 9.537844e-002
 H2O: 1.423073e-001
 O2: 1.600858e-001
 N2: 6.022285e-001


***************************************
Mix non ideale di componenti ideali
***************************************

L=3.321252e+001	[mol/h]
V=2.667875e+002	[mol/h]

xL
 THF: 9.268334e-002
 H2O: 9.073064e-001
 O2: 3.696366e-006
 N2: 6.524522e-006

yV
 THF: 1.009109e-001
 H2O: 1.494301e-001
 O2: 1.574282e-001
 N2: 5.922309e-001


***************************************
Mix non ideale di componenti non ideali
***************************************

L=3.863983e+001	[mol/h]
V=2.613602e+002	[mol/h]

xL
 THF: 8.819740e-002
 H2O: 9.117922e-001
 O2: 3.773121e-006
 N2: 6.660006e-006

yV
 THF: 1.017449e-001
 H2O: 1.330291e-001
 O2: 1.606972e-001
 N2: 6.045288e-001


***************************************
Potenza Q=4.614177e+000 [kW]
***************************************
			<<<< X = 8 >>>>			FINE


			<<<< X = 9 >>>>			INIZIO

***************************************
Tutto ideale
***************************************

L=3.167522e+001	[mol/h]
V=2.683248e+002	[mol/h]

xL
 THF: 1.254751e-001
 H2O: 8.745147e-001
 O2: 3.675189e-006
 N2: 6.487142e-006

yV
 THF: 9.699271e-002
 H2O: 1.576431e-001
 O2: 1.565263e-001
 N2: 5.888379e-001


***************************************
Mix non ideale di componenti ideali
***************************************

L=2.727316e+001	[mol/h]
V=2.727268e+002	[mol/h]

xL
 THF: 8.638622e-002
 H2O: 9.136038e-001
 O2: 3.615869e-006
 N2: 6.382435e-006

yV
 THF: 1.013614e-001
 H2O: 1.653051e-001
 O2: 1.539999e-001
 N2: 5.793336e-001


***************************************
Mix non ideale di componenti non ideali
***************************************

L=3.418482e+001	[mol/h]
V=2.658152e+002	[mol/h]

xL
 THF: 8.235257e-002
 H2O: 9.176372e-001
 O2: 3.709886e-006
 N2: 6.548387e-006

yV
 THF: 1.022695e-001
 H2O: 1.453293e-001
 O2: 1.580040e-001
 N2: 5.943971e-001


***************************************
Potenza Q=5.139224e+000 [kW]
***************************************
			<<<< X = 9 >>>>			FINE


